<?xml version="1.0" encoding="UTF-8" standalone="no"?>
<!-- Created with Inkscape (http://www.inkscape.org/) -->

<svg
   xmlns:dc="http://purl.org/dc/elements/1.1/"
   xmlns:cc="http://creativecommons.org/ns#"
   xmlns:rdf="http://www.w3.org/1999/02/22-rdf-syntax-ns#"
   xmlns:svg="http://www.w3.org/2000/svg"
   xmlns="http://www.w3.org/2000/svg"
   xmlns:sodipodi="http://sodipodi.sourceforge.net/DTD/sodipodi-0.dtd"
   xmlns:inkscape="http://www.inkscape.org/namespaces/inkscape"
   width="100pt"
   height="100pt"
   viewBox="0 0 99.999996 99.999996"
   version="1.1"
   id="svg8"
   inkscape:version="0.92.2 5c3e80d, 2017-08-06"
   sodipodi:docname="moving_iron_meter_symbol.cleaned-file.svg">
  <title
     id="title6467">Moving Iron Meter Symbol</title>
  <defs
     id="defs2">
    <marker
       inkscape:stockid="DotS"
       orient="auto"
       refY="0"
       refX="0"
       id="DotS"
       style="overflow:visible"
       inkscape:isstock="true">
      <path
         id="path4824"
         d="m -2.5,-1 c 0,2.76 -2.24,5 -5,5 -2.76,0 -5,-2.24 -5,-5 0,-2.76 2.24,-5 5,-5 2.76,0 5,2.24 5,5 z"
         style="fill:#000000;fill-opacity:1;fill-rule:evenodd;stroke:#000000;stroke-width:1.00000003pt;stroke-opacity:1"
         transform="matrix(0.2,0,0,0.2,1.48,0.2)"
         inkscape:connector-curvature="0" />
    </marker>
    <marker
       inkscape:stockid="DotL"
       orient="auto"
       refY="0"
       refX="0"
       id="DotL"
       style="overflow:visible"
       inkscape:isstock="true">
      <path
         id="path4818"
         d="m -2.5,-1 c 0,2.76 -2.24,5 -5,5 -2.76,0 -5,-2.24 -5,-5 0,-2.76 2.24,-5 5,-5 2.76,0 5,2.24 5,5 z"
         style="fill:#ff0000;fill-opacity:1;fill-rule:evenodd;stroke:#ff0000;stroke-width:1.00000003pt;stroke-opacity:1"
         transform="matrix(0.8,0,0,0.8,5.92,0.8)"
         inkscape:connector-curvature="0" />
    </marker>
  </defs>
  <sodipodi:namedview
     id="base"
     pagecolor="#ffffff"
     bordercolor="#666666"
     borderopacity="1.0"
     inkscape:pageopacity="0.0"
     inkscape:pageshadow="2"
     inkscape:zoom="2.8284271"
     inkscape:cx="-4.6141347"
     inkscape:cy="60.028124"
     inkscape:document-units="pt"
     inkscape:current-layer="layer1"
     showgrid="true"
     units="pt"
     showguides="true"
     inkscape:guide-bbox="true"
     inkscape:snap-intersection-paths="true"
     inkscape:snap-grids="true"
     borderlayer="true"
     inkscape:measure-start="26.6667,26.6667"
     inkscape:measure-end="93.3333,6.66667"
     inkscape:window-width="2556"
     inkscape:window-height="1038"
     inkscape:window-x="1366"
     inkscape:window-y="40"
     inkscape:window-maximized="0"
     scale-x="0.5"
     viewbox-width="100"
     viewbox-height="100" />
  <metadata
     id="metadata5">
    <rdf:RDF>
      <cc:Work
         rdf:about="">
        <dc:format>image/svg+xml</dc:format>
        <dc:type
           rdf:resource="http://purl.org/dc/dcmitype/StillImage" />
        <dc:title>Moving Iron Meter Symbol</dc:title>
        <cc:license
           rdf:resource="http://creativecommons.org/publicdomain/zero/1.0/" />
        <dc:date>2017-11-30</dc:date>
        <dc:creator>
          <cc:Agent>
            <dc:title>Simon Marquardt</dc:title>
          </cc:Agent>
        </dc:creator>
        <dc:description>Electronic symbol for a moving iron meter</dc:description>
        <dc:contributor>
          <cc:Agent>
            <dc:title>traced from https://commons.wikimedia.org/wiki/File:Symbool_Elektromagnetische_meter.jpg</dc:title>
          </cc:Agent>
        </dc:contributor>
        <dc:source></dc:source>
      </cc:Work>
      <cc:License
         rdf:about="http://creativecommons.org/publicdomain/zero/1.0/">
        <cc:permits
           rdf:resource="http://creativecommons.org/ns#Reproduction" />
        <cc:permits
           rdf:resource="http://creativecommons.org/ns#Distribution" />
        <cc:permits
           rdf:resource="http://creativecommons.org/ns#DerivativeWorks" />
      </cc:License>
    </rdf:RDF>
  </metadata>
  <g
     inkscape:label="symbol"
     inkscape:groupmode="layer"
     id="layer1"
     transform="translate(0,-261.72223)"
     style="opacity:0.95">
    <g
       id="g6463"
       transform="matrix(2.575205,0,0,2.575205,-3.4240089,-407.67566)">
      <path
         sodipodi:nodetypes="ccccccc"
         inkscape:connector-curvature="0"
         id="path259"
         d="m 33.513891,263.48611 -26.4583349,5.2917 17.6388899,5.29159 -17.6388899,5.29172 17.6388899,5.29169 -17.6388899,5.29164 26.4583359,5.29167"
         style="opacity:0.98999999;fill:none;fill-rule:evenodd;stroke:#000000;stroke-width:1.41111124;stroke-linecap:round;stroke-linejoin:round;stroke-miterlimit:4;stroke-dasharray:none;stroke-opacity:1;marker-start:url(#DotS);marker-end:url(#DotS)" />
      <path
         inkscape:connector-curvature="0"
         id="path261"
         d="M 16.756946,288.88612 V 263.48611"
         style="fill:none;fill-rule:evenodd;stroke:#000000;stroke-width:2.82222247;stroke-linecap:square;stroke-linejoin:miter;stroke-miterlimit:4;stroke-dasharray:none;stroke-opacity:1" />
    </g>
  </g>
</svg>
