<?xml version="1.0" encoding="UTF-8" standalone="no"?>
<svg
   xmlns:dc="http://purl.org/dc/elements/1.1/"
   xmlns:cc="http://creativecommons.org/ns#"
   xmlns:rdf="http://www.w3.org/1999/02/22-rdf-syntax-ns#"
   xmlns:svg="http://www.w3.org/2000/svg"
   xmlns="http://www.w3.org/2000/svg"
   xmlns:xlink="http://www.w3.org/1999/xlink"
   xmlns:sodipodi="http://sodipodi.sourceforge.net/DTD/sodipodi-0.dtd"
   xmlns:inkscape="http://www.inkscape.org/namespaces/inkscape"
   width="785.34375"
   height="323.875"
   viewBox="0 0 785.34376 323.875"
   id="svg2"
   version="1.1"
   inkscape:version="0.48.2 r9819"
   sodipodi:docname="rotating-3-phase-magnetic-field.svg">
  <metadata
     id="metadata164">
    <rdf:RDF>
      <cc:Work
         rdf:about="">
        <dc:format>image/svg+xml</dc:format>
        <dc:type
           rdf:resource="http://purl.org/dc/dcmitype/StillImage" />
        <dc:title />
      </cc:Work>
    </rdf:RDF>
  </metadata>
  <sodipodi:namedview
     pagecolor="#ffffff"
     bordercolor="#666666"
     borderopacity="1"
     objecttolerance="10"
     gridtolerance="10"
     guidetolerance="10"
     inkscape:pageopacity="0"
     inkscape:pageshadow="2"
     inkscape:window-width="1600"
     inkscape:window-height="1150"
     id="namedview162"
     showgrid="false"
     showborder="true"
     inkscape:showpageshadow="false"
     inkscape:zoom="0.77257964"
     inkscape:cx="463.43976"
     inkscape:cy="137.09844"
     inkscape:window-x="-8"
     inkscape:window-y="-8"
     inkscape:window-maximized="1"
     inkscape:current-layer="svg2"
     fit-margin-top="4"
     fit-margin-left="4"
     fit-margin-right="4"
     fit-margin-bottom="4"
     showguides="true"
     inkscape:guide-bbox="true">
    <inkscape:grid
       type="xygrid"
       id="grid4366"
       empspacing="5"
       visible="true"
       enabled="true"
       snapvisiblegridlinesonly="true" />
  </sodipodi:namedview>
  <desc
     id="desc4">Produced by GNUPLOT 4.4 patchlevel 0 octave-mingw32 </desc>
  <defs
     id="defs6">
    <marker
       inkscape:stockid="Arrow1Lstart"
       orient="auto"
       refY="0"
       refX="0"
       id="Arrow1Lstart"
       style="overflow:visible">
      <path
         id="path3932"
         d="M 0,0 5,-5 -12.5,0 5,5 0,0 z"
         style="fill-rule:evenodd;stroke:#000000;stroke-width:1pt;marker-start:none"
         transform="matrix(0.8,0,0,0.8,10,0)"
         inkscape:connector-curvature="0" />
    </marker>
    <marker
       inkscape:stockid="Arrow1Lend"
       orient="auto"
       refY="0"
       refX="0"
       id="Arrow1Lend"
       style="overflow:visible">
      <path
         id="path3935"
         d="M 0,0 5,-5 -12.5,0 5,5 0,0 z"
         style="fill-rule:evenodd;stroke:#000000;stroke-width:1pt;marker-start:none"
         transform="matrix(-0.8,0,0,-0.8,-10,0)"
         inkscape:connector-curvature="0" />
    </marker>
    <circle
       id="gpDot"
       r="0.5"
       cx="0"
       cy="0"
       sodipodi:cx="0"
       sodipodi:cy="0"
       sodipodi:rx="0.5"
       sodipodi:ry="0.5"
       style="stroke-width:0.5" />
    <path
       id="gpPt0"
       d="M -1,0 H 1 M 0,-1 v 2"
       inkscape:connector-curvature="0"
       style="stroke:currentColor;stroke-width:0.222" />
    <path
       id="gpPt1"
       d="M -1,-1 1,1 M 1,-1 -1,1"
       inkscape:connector-curvature="0"
       style="stroke:currentColor;stroke-width:0.222" />
    <path
       id="gpPt2"
       d="M -1,0 1,0 M 0,-1 0,1 m -1,-2 2,2 m -2,0 2,-2"
       inkscape:connector-curvature="0"
       style="stroke:currentColor;stroke-width:0.222" />
    <rect
       id="gpPt3"
       x="-1"
       y="-1"
       width="2"
       height="2"
       style="stroke:currentColor;stroke-width:0.222" />
    <rect
       id="gpPt4"
       x="-1"
       y="-1"
       width="2"
       height="2"
       style="fill:currentColor;stroke:currentColor;stroke-width:0.222" />
    <circle
       id="gpPt5"
       cx="0"
       cy="0"
       r="1"
       sodipodi:cx="0"
       sodipodi:cy="0"
       sodipodi:rx="1"
       sodipodi:ry="1"
       style="stroke:currentColor;stroke-width:0.222" />
    <use
       xlink:href="#gpPt5"
       id="gpPt6"
       style="fill:currentColor;stroke:none"
       x="0"
       y="0"
       width="576"
       height="432" />
    <path
       id="gpPt7"
       d="m 0,-1.33 -1.33,2 2.66,0 z"
       inkscape:connector-curvature="0"
       style="stroke:currentColor;stroke-width:0.222" />
    <use
       xlink:href="#gpPt7"
       id="gpPt8"
       style="fill:currentColor;stroke:none"
       x="0"
       y="0"
       width="576"
       height="432" />
    <use
       xlink:href="#gpPt7"
       id="gpPt9"
       transform="scale(-1,-1)"
       style="stroke:currentColor"
       x="0"
       y="0"
       width="576"
       height="432" />
    <use
       xlink:href="#gpPt9"
       id="gpPt10"
       style="fill:currentColor;stroke:none"
       x="0"
       y="0"
       width="576"
       height="432" />
    <use
       xlink:href="#gpPt3"
       id="gpPt11"
       transform="matrix(0.70710678,0.70710678,-0.70710678,0.70710678,0,0)"
       style="stroke:currentColor"
       x="0"
       y="0"
       width="576"
       height="432" />
    <use
       xlink:href="#gpPt11"
       id="gpPt12"
       style="fill:currentColor;stroke:none"
       x="0"
       y="0"
       width="576"
       height="432" />
    <marker
       inkscape:stockid="Arrow1Lend"
       orient="auto"
       refY="0"
       refX="0"
       id="Arrow1Lend-7"
       style="overflow:visible">
      <path
         inkscape:connector-curvature="0"
         id="path3935-4"
         d="M 0,0 5,-5 -12.5,0 5,5 0,0 z"
         style="fill-rule:evenodd;stroke:#000000;stroke-width:1pt;marker-start:none"
         transform="matrix(-0.8,0,0,-0.8,-10,0)" />
    </marker>
  </defs>
  <g
     style="color:#ffffff;fill:none;stroke:currentColor;stroke-width:1;stroke-linecap:butt;stroke-linejoin:miter"
     id="g22"
     transform="translate(1012.3443,137.5322)" />
  <g
     style="color:#ffffff;fill:none;stroke:currentColor;stroke-width:0.5;stroke-linecap:butt;stroke-linejoin:miter"
     id="g24"
     transform="translate(1012.3443,137.5322)" />
  <g
     style="color:#000000;fill:none;stroke:currentColor;stroke-width:0.5;stroke-linecap:butt;stroke-linejoin:miter"
     id="g160"
     transform="translate(1012.3443,137.5322)" />
  <rect
     style="fill:#0000ff;fill-opacity:1;stroke:none"
     id="rect3825"
     width="15.84"
     height="23.76"
     x="-100.36491"
     y="381.59232"
     transform="matrix(0,-1,1,0,0,0)" />
  <rect
     style="fill:#0000ff;fill-opacity:1;stroke:none"
     id="rect3825-1"
     width="15.84"
     height="23.76"
     x="-26.887123"
     y="381.21167"
     transform="matrix(0,-1,1,0,0,0)" />
  <rect
     style="fill:#fe0000;fill-opacity:1;stroke:none"
     id="rect3825-7"
     width="15.84"
     height="23.76"
     x="-412.78424"
     y="136.63408"
     transform="matrix(-0.8660254,-0.5,0.5,-0.8660254,0,0)" />
  <rect
     style="fill:#007800;fill-opacity:0.98823529;stroke:none"
     id="rect3825-4"
     width="15.84"
     height="23.76"
     x="268.08472"
     y="233.33353"
     transform="matrix(0.8660254,-0.5,0.5,0.8660254,0,0)" />
  <rect
     style="fill:#007800;fill-opacity:0.98823529;stroke:none"
     id="rect3825-4-0"
     width="15.84"
     height="23.76"
     x="341.23972"
     y="233.57236"
     transform="matrix(0.8660254,-0.5,0.5,0.8660254,0,0)" />
  <rect
     style="fill:#fe0000;fill-opacity:1;stroke:none"
     id="rect3825-7-9"
     width="15.84"
     height="23.76"
     x="-339.75699"
     y="135.90431"
     transform="matrix(-0.8660254,-0.5,0.5,-0.8660254,0,0)" />
  <path
     sodipodi:type="arc"
     style="fill:none;stroke:#000000;stroke-width:26.42248917;stroke-linecap:butt;stroke-linejoin:miter;stroke-miterlimit:4;stroke-opacity:1;stroke-dasharray:none;stroke-dashoffset:0"
     id="path3037"
     sodipodi:cx="57.203388"
     sodipodi:cy="153.22348"
     sodipodi:rx="219.20338"
     sodipodi:ry="189.91525"
     d="m 276.40677,153.22348 a 219.20338,189.91525 0 1 1 -438.40677,0 219.20338,189.91525 0 1 1 438.40677,0 z"
     transform="matrix(0.21136535,0,0,0.24396144,381.12909,18.540679)" />
  <path
     sodipodi:type="arc"
     style="fill:none;stroke:#fffffe;stroke-width:42.61592484;stroke-linecap:butt;stroke-linejoin:miter;stroke-miterlimit:4;stroke-opacity:0.98666669;stroke-dasharray:none;stroke-dashoffset:0"
     id="path3037-8"
     sodipodi:cx="57.203388"
     sodipodi:cy="153.22348"
     sodipodi:rx="219.20338"
     sodipodi:ry="189.91525"
     d="m 276.40677,153.22348 a 219.20338,189.91525 0 1 1 -438.40677,0 219.20338,189.91525 0 1 1 438.40677,0 z"
     transform="matrix(0.13104958,0,0,0.15125964,385.4885,32.516589)" />
  <path
     style="fill:none;stroke:#000000;stroke-width:8;stroke-linecap:butt;stroke-linejoin:miter;stroke-miterlimit:4;stroke-opacity:1;stroke-dasharray:none"
     d="M 370.72722,69.767651 407.06788,48.786374"
     id="path3870"
     inkscape:connector-curvature="0" />
  <path
     style="fill:#000000;fill-opacity:1;stroke:#000000;stroke-width:1px;stroke-linecap:butt;stroke-linejoin:miter;stroke-opacity:1"
     d="m 401.06639,43.096054 7.79447,13.500421 9.03176,-14.214771 z"
     id="path4368-1"
     inkscape:connector-curvature="0" />
  <rect
     style="fill:#0000ff;fill-opacity:1;stroke:none"
     id="rect3825-8"
     width="15.84"
     height="23.76"
     x="-101.34882"
     y="492.13043"
     transform="matrix(0,-1,1,0,0,0)" />
  <rect
     style="fill:#0000ff;fill-opacity:1;stroke:none"
     id="rect3825-1-2"
     width="15.84"
     height="23.76"
     x="-27.871025"
     y="491.74979"
     transform="matrix(0,-1,1,0,0,0)" />
  <rect
     style="fill:#fe0000;fill-opacity:1;stroke:none"
     id="rect3825-7-4"
     width="15.84"
     height="23.76"
     x="-509.00494"
     y="191.05107"
     transform="matrix(-0.8660254,-0.5,0.5,-0.8660254,0,0)" />
  <rect
     style="fill:#007800;fill-opacity:0.98823529;stroke:none"
     id="rect3825-4-5"
     width="15.84"
     height="23.76"
     x="363.32156"
     y="289.45468"
     transform="matrix(0.8660254,-0.5,0.5,0.8660254,0,0)" />
  <rect
     style="fill:#007800;fill-opacity:0.98823529;stroke:none"
     id="rect3825-4-0-5"
     width="15.84"
     height="23.76"
     x="436.47659"
     y="289.69351"
     transform="matrix(0.8660254,-0.5,0.5,0.8660254,0,0)" />
  <rect
     style="fill:#fe0000;fill-opacity:1;stroke:none"
     id="rect3825-7-9-1"
     width="15.84"
     height="23.76"
     x="-435.97778"
     y="190.32129"
     transform="matrix(-0.8660254,-0.5,0.5,-0.8660254,0,0)" />
  <path
     sodipodi:type="arc"
     style="fill:none;stroke:#000000;stroke-width:26.42248917;stroke-linecap:butt;stroke-linejoin:miter;stroke-miterlimit:4;stroke-opacity:1;stroke-dasharray:none;stroke-dashoffset:0"
     id="path3037-7"
     sodipodi:cx="57.203388"
     sodipodi:cy="153.22348"
     sodipodi:rx="219.20338"
     sodipodi:ry="189.91525"
     d="m 276.40677,153.22348 a 219.20338,189.91525 0 1 1 -438.40677,0 219.20338,189.91525 0 1 1 438.40677,0 z"
     transform="matrix(0.21136535,0,0,0.24396144,491.66721,19.524599)" />
  <path
     sodipodi:type="arc"
     style="fill:none;stroke:#fffffe;stroke-width:42.61592484;stroke-linecap:butt;stroke-linejoin:miter;stroke-miterlimit:4;stroke-opacity:0.98666669;stroke-dasharray:none;stroke-dashoffset:0"
     id="path3037-8-1"
     sodipodi:cx="57.203388"
     sodipodi:cy="153.22348"
     sodipodi:rx="219.20338"
     sodipodi:ry="189.91525"
     d="m 276.40677,153.22348 a 219.20338,189.91525 0 1 1 -438.40677,0 219.20338,189.91525 0 1 1 438.40677,0 z"
     transform="matrix(0.13104958,0,0,0.15125964,496.02662,33.500509)" />
  <path
     style="fill:none;stroke:#000000;stroke-width:8;stroke-linecap:butt;stroke-linejoin:miter;stroke-miterlimit:4;stroke-opacity:1;stroke-dasharray:none"
     d="m 504.04654,82.297031 1e-5,-41.962577"
     id="path3870-5"
     inkscape:connector-curvature="0" />
  <path
     style="fill:#000000;fill-opacity:1;stroke:#000000;stroke-width:1px;stroke-linecap:butt;stroke-linejoin:miter;stroke-opacity:1"
     d="m 496.11784,42.686744 15.58894,0 -7.79447,-14.92911 z"
     id="path4368-1-2"
     inkscape:connector-curvature="0" />
  <rect
     style="fill:#0000ff;fill-opacity:1;stroke:none"
     id="rect3825-8-7"
     width="15.84"
     height="23.76"
     x="-101.78574"
     y="604.37549"
     transform="matrix(0,-1,1,0,0,0)" />
  <rect
     style="fill:#0000ff;fill-opacity:1;stroke:none"
     id="rect3825-1-2-6"
     width="15.84"
     height="23.76"
     x="-28.30793"
     y="603.99481"
     transform="matrix(0,-1,1,0,0,0)" />
  <rect
     style="fill:#fe0000;fill-opacity:1;stroke:none"
     id="rect3825-7-4-1"
     width="15.84"
     height="23.76"
     x="-606.43054"
     y="246.79517"
     transform="matrix(-0.8660254,-0.5,0.5,-0.8660254,0,0)" />
  <rect
     style="fill:#007800;fill-opacity:0.98823529;stroke:none"
     id="rect3825-4-5-4"
     width="15.84"
     height="23.76"
     x="460.31024"
     y="345.95569"
     transform="matrix(0.8660254,-0.5,0.5,0.8660254,0,0)" />
  <rect
     style="fill:#007800;fill-opacity:0.98823529;stroke:none"
     id="rect3825-4-0-5-2"
     width="15.84"
     height="23.76"
     x="533.46509"
     y="346.19446"
     transform="matrix(0.8660254,-0.5,0.5,0.8660254,0,0)" />
  <rect
     style="fill:#fe0000;fill-opacity:1;stroke:none"
     id="rect3825-7-9-1-3"
     width="15.84"
     height="23.76"
     x="-533.4032"
     y="246.06538"
     transform="matrix(-0.8660254,-0.5,0.5,-0.8660254,0,0)" />
  <path
     sodipodi:type="arc"
     style="fill:none;stroke:#000000;stroke-width:26.42248917;stroke-linecap:butt;stroke-linejoin:miter;stroke-miterlimit:4;stroke-opacity:1;stroke-dasharray:none;stroke-dashoffset:0"
     id="path3037-7-2"
     sodipodi:cx="57.203388"
     sodipodi:cy="153.22348"
     sodipodi:rx="219.20338"
     sodipodi:ry="189.91525"
     d="m 276.40677,153.22348 a 219.20338,189.91525 0 1 1 -438.40677,0 219.20338,189.91525 0 1 1 438.40677,0 z"
     transform="matrix(0.21136535,0,0,0.24396144,603.91221,19.961509)" />
  <path
     sodipodi:type="arc"
     style="fill:none;stroke:#fffffe;stroke-width:42.61592484;stroke-linecap:butt;stroke-linejoin:miter;stroke-miterlimit:4;stroke-opacity:0.98666669;stroke-dasharray:none;stroke-dashoffset:0"
     id="path3037-8-1-2"
     sodipodi:cx="57.203388"
     sodipodi:cy="153.22348"
     sodipodi:rx="219.20338"
     sodipodi:ry="189.91525"
     d="m 276.40677,153.22348 a 219.20338,189.91525 0 1 1 -438.40677,0 219.20338,189.91525 0 1 1 438.40677,0 z"
     transform="matrix(0.13104958,0,0,0.15125964,608.27161,33.937419)" />
  <path
     style="fill:none;stroke:#000000;stroke-width:8;stroke-linecap:butt;stroke-linejoin:miter;stroke-miterlimit:4;stroke-opacity:1;stroke-dasharray:none"
     d="M 638.62695,71.610381 602.28629,50.629084"
     id="path3870-5-6"
     inkscape:connector-curvature="0" />
  <path
     style="fill:#000000;fill-opacity:1;stroke:#000000;stroke-width:1px;stroke-linecap:butt;stroke-linejoin:miter;stroke-opacity:1"
     d="m 600.35908,58.671695 7.79447,-13.500421 -16.82623,-0.71435 z"
     id="path4368-1-2-8"
     inkscape:connector-curvature="0" />
  <rect
     style="fill:#0000ff;fill-opacity:1;stroke:none"
     id="rect3825-76"
     width="15.84"
     height="23.76"
     x="-97.999428"
     y="49.062599"
     transform="matrix(0,-1,1,0,0,0)" />
  <rect
     style="fill:#0000ff;fill-opacity:1;stroke:none"
     id="rect3825-1-1"
     width="15.84"
     height="23.76"
     x="-24.521629"
     y="48.681953"
     transform="matrix(0,-1,1,0,0,0)" />
  <rect
     style="fill:#fe0000;fill-opacity:1;stroke:none"
     id="rect3825-7-8"
     width="15.84"
     height="23.76"
     x="-123.62231"
     y="-27.582201"
     transform="matrix(-0.8660254,-0.5,0.5,-0.8660254,0,0)" />
  <rect
     style="fill:#007800;fill-opacity:0.98823529;stroke:none"
     id="rect3825-4-9"
     width="15.84"
     height="23.76"
     x="-18.711733"
     y="65.020111"
     transform="matrix(0.8660254,-0.5,0.5,0.8660254,0,0)" />
  <rect
     style="fill:#007800;fill-opacity:0.98823529;stroke:none"
     id="rect3825-4-0-2"
     width="15.84"
     height="23.76"
     x="54.443264"
     y="65.258942"
     transform="matrix(0.8660254,-0.5,0.5,0.8660254,0,0)" />
  <rect
     style="fill:#fe0000;fill-opacity:1;stroke:none"
     id="rect3825-7-9-7"
     width="15.84"
     height="23.76"
     x="-50.595055"
     y="-28.311968"
     transform="matrix(-0.8660254,-0.5,0.5,-0.8660254,0,0)" />
  <path
     sodipodi:type="arc"
     style="fill:none;stroke:#000000;stroke-width:26.42248917;stroke-linecap:butt;stroke-linejoin:miter;stroke-miterlimit:4;stroke-opacity:1;stroke-dasharray:none;stroke-dashoffset:0"
     id="path3037-9"
     sodipodi:cx="57.203388"
     sodipodi:cy="153.22348"
     sodipodi:rx="219.20338"
     sodipodi:ry="189.91525"
     d="m 276.40677,153.22348 a 219.20338,189.91525 0 1 1 -438.40677,0 219.20338,189.91525 0 1 1 438.40677,0 z"
     transform="matrix(0.21136535,0,0,0.24396144,48.599388,16.175199)" />
  <path
     sodipodi:type="arc"
     style="fill:none;stroke:#fffffe;stroke-width:42.61592484;stroke-linecap:butt;stroke-linejoin:miter;stroke-miterlimit:4;stroke-opacity:0.98666669;stroke-dasharray:none;stroke-dashoffset:0"
     id="path3037-8-5"
     sodipodi:cx="57.203388"
     sodipodi:cy="153.22348"
     sodipodi:rx="219.20338"
     sodipodi:ry="189.91525"
     d="m 276.40677,153.22348 a 219.20338,189.91525 0 1 1 -438.40677,0 219.20338,189.91525 0 1 1 438.40677,0 z"
     transform="matrix(0.13104958,0,0,0.15125964,52.958788,30.151099)" />
  <path
     style="fill:none;stroke:#000000;stroke-width:8;stroke-linecap:butt;stroke-linejoin:miter;stroke-miterlimit:4;stroke-opacity:1;stroke-dasharray:none"
     d="M 83.951518,41.895284 47.610858,62.876561"
     id="path3870-3"
     inkscape:connector-curvature="0" />
  <path
     style="fill:#000000;fill-opacity:1;stroke:#000000;stroke-width:1px;stroke-linecap:butt;stroke-linejoin:miter;stroke-opacity:1"
     d="m 53.612348,68.566871 -7.79446,-13.500407 -9.03176,14.214757 z"
     id="path4368-1-1"
     inkscape:connector-curvature="0" />
  <rect
     style="fill:#0000ff;fill-opacity:1;stroke:none"
     id="rect3825-8-2"
     width="15.84"
     height="23.76"
     x="-98.983345"
     y="159.60072"
     transform="matrix(0,-1,1,0,0,0)" />
  <rect
     style="fill:#0000ff;fill-opacity:1;stroke:none"
     id="rect3825-1-2-3"
     width="15.84"
     height="23.76"
     x="-25.505547"
     y="159.22008"
     transform="matrix(0,-1,1,0,0,0)" />
  <rect
     style="fill:#fe0000;fill-opacity:1;stroke:none"
     id="rect3825-7-4-3"
     width="15.84"
     height="23.76"
     x="-219.84319"
     y="26.834517"
     transform="matrix(-0.8660254,-0.5,0.5,-0.8660254,0,0)" />
  <rect
     style="fill:#007800;fill-opacity:0.98823529;stroke:none"
     id="rect3825-4-5-41"
     width="15.84"
     height="23.76"
     x="76.524818"
     y="121.14121"
     transform="matrix(0.8660254,-0.5,0.5,0.8660254,0,0)" />
  <rect
     style="fill:#007800;fill-opacity:0.98823529;stroke:none"
     id="rect3825-4-0-5-1"
     width="15.84"
     height="23.76"
     x="149.67969"
     y="121.38004"
     transform="matrix(0.8660254,-0.5,0.5,0.8660254,0,0)" />
  <rect
     style="fill:#fe0000;fill-opacity:1;stroke:none"
     id="rect3825-7-9-1-38"
     width="15.84"
     height="23.76"
     x="-146.81557"
     y="26.10475"
     transform="matrix(-0.8660254,-0.5,0.5,-0.8660254,0,0)" />
  <path
     sodipodi:type="arc"
     style="fill:none;stroke:#000000;stroke-width:26.42248917;stroke-linecap:butt;stroke-linejoin:miter;stroke-miterlimit:4;stroke-opacity:1;stroke-dasharray:none;stroke-dashoffset:0"
     id="path3037-7-7"
     sodipodi:cx="57.203388"
     sodipodi:cy="153.22348"
     sodipodi:rx="219.20338"
     sodipodi:ry="189.91525"
     d="m 276.40677,153.22348 a 219.20338,189.91525 0 1 1 -438.40677,0 219.20338,189.91525 0 1 1 438.40677,0 z"
     transform="matrix(0.21136535,0,0,0.24396144,159.1375,17.159119)" />
  <path
     sodipodi:type="arc"
     style="fill:none;stroke:#fffffe;stroke-width:42.61592484;stroke-linecap:butt;stroke-linejoin:miter;stroke-miterlimit:4;stroke-opacity:0.98666669;stroke-dasharray:none;stroke-dashoffset:0"
     id="path3037-8-1-4"
     sodipodi:cx="57.203388"
     sodipodi:cy="153.22348"
     sodipodi:rx="219.20338"
     sodipodi:ry="189.91525"
     d="m 276.40677,153.22348 a 219.20338,189.91525 0 1 1 -438.40677,0 219.20338,189.91525 0 1 1 438.40677,0 z"
     transform="matrix(0.13104958,0,0,0.15125964,163.49691,31.135029)" />
  <path
     style="fill:none;stroke:#000000;stroke-width:8;stroke-linecap:butt;stroke-linejoin:miter;stroke-miterlimit:4;stroke-opacity:1;stroke-dasharray:none"
     d="m 171.04276,27.437434 -10e-6,41.962577"
     id="path3870-5-7"
     inkscape:connector-curvature="0" />
  <path
     style="fill:#000000;fill-opacity:1;stroke:#000000;stroke-width:1px;stroke-linecap:butt;stroke-linejoin:miter;stroke-opacity:1"
     d="m 178.97146,67.047721 -15.58894,0 7.79447,14.92911 z"
     id="path4368-1-2-7"
     inkscape:connector-curvature="0" />
  <rect
     style="fill:#0000ff;fill-opacity:1;stroke:none"
     id="rect3825-8-7-9"
     width="15.84"
     height="23.76"
     x="-99.420265"
     y="271.84573"
     transform="matrix(0,-1,1,0,0,0)" />
  <rect
     style="fill:#0000ff;fill-opacity:1;stroke:none"
     id="rect3825-1-2-6-3"
     width="15.84"
     height="23.76"
     x="-25.942451"
     y="271.46506"
     transform="matrix(0,-1,1,0,0,0)" />
  <rect
     style="fill:#fe0000;fill-opacity:1;stroke:none"
     id="rect3825-7-4-1-1"
     width="15.84"
     height="23.76"
     x="-317.26886"
     y="82.578636"
     transform="matrix(-0.8660254,-0.5,0.5,-0.8660254,0,0)" />
  <rect
     style="fill:#007800;fill-opacity:0.98823529;stroke:none"
     id="rect3825-4-5-4-9"
     width="15.84"
     height="23.76"
     x="173.51337"
     y="177.6423"
     transform="matrix(0.8660254,-0.5,0.5,0.8660254,0,0)" />
  <rect
     style="fill:#007800;fill-opacity:0.98823529;stroke:none"
     id="rect3825-4-0-5-2-8"
     width="15.84"
     height="23.76"
     x="246.66826"
     y="177.8811"
     transform="matrix(0.8660254,-0.5,0.5,0.8660254,0,0)" />
  <rect
     style="fill:#fe0000;fill-opacity:1;stroke:none"
     id="rect3825-7-9-1-3-6"
     width="15.84"
     height="23.76"
     x="-244.24144"
     y="81.848839"
     transform="matrix(-0.8660254,-0.5,0.5,-0.8660254,0,0)" />
  <path
     sodipodi:type="arc"
     style="fill:none;stroke:#000000;stroke-width:26.42248917;stroke-linecap:butt;stroke-linejoin:miter;stroke-miterlimit:4;stroke-opacity:1;stroke-dasharray:none;stroke-dashoffset:0"
     id="path3037-7-2-5"
     sodipodi:cx="57.203388"
     sodipodi:cy="153.22348"
     sodipodi:rx="219.20338"
     sodipodi:ry="189.91525"
     d="m 276.40677,153.22348 a 219.20338,189.91525 0 1 1 -438.40677,0 219.20338,189.91525 0 1 1 438.40677,0 z"
     transform="matrix(0.21136535,0,0,0.24396144,271.3825,17.596029)" />
  <path
     sodipodi:type="arc"
     style="fill:none;stroke:#fffffe;stroke-width:42.61592484;stroke-linecap:butt;stroke-linejoin:miter;stroke-miterlimit:4;stroke-opacity:0.98666669;stroke-dasharray:none;stroke-dashoffset:0"
     id="path3037-8-1-2-0"
     sodipodi:cx="57.203388"
     sodipodi:cy="153.22348"
     sodipodi:rx="219.20338"
     sodipodi:ry="189.91525"
     d="m 276.40677,153.22348 a 219.20338,189.91525 0 1 1 -438.40677,0 219.20338,189.91525 0 1 1 438.40677,0 z"
     transform="matrix(0.13104958,0,0,0.15125964,275.7419,31.571939)" />
  <path
     style="fill:none;stroke:#000000;stroke-width:8;stroke-linecap:butt;stroke-linejoin:miter;stroke-miterlimit:4;stroke-opacity:1;stroke-dasharray:none"
     d="m 259.65967,41.574554 36.34066,20.981297"
     id="path3870-5-6-8"
     inkscape:connector-curvature="0" />
  <path
     style="fill:#000000;fill-opacity:1;stroke:#000000;stroke-width:1px;stroke-linecap:butt;stroke-linejoin:miter;stroke-opacity:1"
     d="m 297.92754,54.513254 -7.79447,13.500407 16.82623,0.71435 z"
     id="path4368-1-2-8-6"
     inkscape:connector-curvature="0" />
  <rect
     style="fill:#0000ff;fill-opacity:1;stroke:none"
     id="rect3825-8-7-0"
     width="15.84"
     height="23.76"
     x="-101.86655"
     y="716.21576"
     transform="matrix(0,-1,1,0,0,0)" />
  <rect
     style="fill:#0000ff;fill-opacity:1;stroke:none"
     id="rect3825-1-2-6-2"
     width="15.84"
     height="23.76"
     x="-28.388741"
     y="715.83508"
     transform="matrix(0,-1,1,0,0,0)" />
  <rect
     style="fill:#fe0000;fill-opacity:1;stroke:none"
     id="rect3825-7-4-1-4"
     width="15.84"
     height="23.76"
     x="-703.32758"
     y="302.64545"
     transform="matrix(-0.8660254,-0.5,0.5,-0.8660254,0,0)" />
  <rect
     style="fill:#007800;fill-opacity:0.98823529;stroke:none"
     id="rect3825-4-5-4-8"
     width="15.84"
     height="23.76"
     x="557.12628"
     y="401.94562"
     transform="matrix(0.8660254,-0.5,0.5,0.8660254,0,0)" />
  <rect
     style="fill:#007800;fill-opacity:0.98823529;stroke:none"
     id="rect3825-4-0-5-2-6"
     width="15.84"
     height="23.76"
     x="630.28119"
     y="402.18445"
     transform="matrix(0.8660254,-0.5,0.5,0.8660254,0,0)" />
  <rect
     style="fill:#fe0000;fill-opacity:1;stroke:none"
     id="rect3825-7-9-1-3-5"
     width="15.84"
     height="23.76"
     x="-630.30023"
     y="301.91568"
     transform="matrix(-0.8660254,-0.5,0.5,-0.8660254,0,0)" />
  <path
     sodipodi:type="arc"
     style="fill:none;stroke:#000000;stroke-width:26.42248917;stroke-linecap:butt;stroke-linejoin:miter;stroke-miterlimit:4;stroke-opacity:1;stroke-dasharray:none;stroke-dashoffset:0"
     id="path3037-7-2-0"
     sodipodi:cx="57.203388"
     sodipodi:cy="153.22348"
     sodipodi:rx="219.20338"
     sodipodi:ry="189.91525"
     d="m 276.40677,153.22348 a 219.20338,189.91525 0 1 1 -438.40677,0 219.20338,189.91525 0 1 1 438.40677,0 z"
     transform="matrix(0.21136535,0,0,0.24396144,715.75247,20.042329)" />
  <path
     sodipodi:type="arc"
     style="fill:none;stroke:#fffffe;stroke-width:42.61592484;stroke-linecap:butt;stroke-linejoin:miter;stroke-miterlimit:4;stroke-opacity:0.98666669;stroke-dasharray:none;stroke-dashoffset:0"
     id="path3037-8-1-2-9"
     sodipodi:cx="57.203388"
     sodipodi:cy="153.22348"
     sodipodi:rx="219.20338"
     sodipodi:ry="189.91525"
     d="m 276.40677,153.22348 a 219.20338,189.91525 0 1 1 -438.40677,0 219.20338,189.91525 0 1 1 438.40677,0 z"
     transform="matrix(0.13104958,0,0,0.15125964,720.11187,34.018239)" />
  <path
     style="fill:none;stroke:#000000;stroke-width:8;stroke-linecap:butt;stroke-linejoin:miter;stroke-miterlimit:4;stroke-opacity:1;stroke-dasharray:none"
     d="M 751.4198,44.455414 715.07914,65.436691"
     id="path3870-5-6-0"
     inkscape:connector-curvature="0" />
  <path
     style="fill:#000000;fill-opacity:1;stroke:#000000;stroke-width:1px;stroke-linecap:butt;stroke-linejoin:miter;stroke-opacity:1"
     d="M 721.08063,71.127001 713.28616,57.626595 704.2544,71.841351 z"
     id="path4368-1-2-8-61"
     inkscape:connector-curvature="0" />
  <path
     style="fill:none;stroke:#000000;stroke-width:2.79999995;stroke-linecap:butt;stroke-linejoin:miter;stroke-miterlimit:4;stroke-opacity:1;stroke-dasharray:none"
     d="m 4.484692,221.14288 c 258.587948,0 517.175898,0 775.763838,0"
     id="path5297"
     inkscape:connector-curvature="0" />
  <path
     style="fill:none;stroke:#009900;stroke-width:3;stroke-linecap:butt;stroke-linejoin:miter;stroke-miterlimit:4;stroke-opacity:1;stroke-dasharray:none"
     d="m 4.484692,310.04549 5.379829,1.80454 5.379829,1.58839 5.379829,1.36759 5.37983,1.14446 5.379828,0.9176 5.379829,0.68845 5.37983,0.45834 5.379829,0.22638 5.379829,-0.006 5.379829,-0.23847 5.379829,-0.4695 5.37983,-0.70052 5.379828,-0.92923 5.37983,-1.15609 5.379828,-1.3792 5.379831,-1.59908 5.379827,-1.8157 5.379834,-2.02675 5.37983,-2.23359 5.37982,-2.43488 5.37983,-2.62919 5.37984,-2.81746 5.37981,-2.9992 5.37984,-3.1726 5.37983,-3.33807 5.37983,-3.49614 5.37983,-3.64441 5.37983,-3.78434 5.37982,-3.9145 5.37983,-4.03456 5.37983,-4.14505 5.37983,-4.24492 5.37983,-4.33429 5.37982,-4.41272 5.37984,-4.48026 5.37982,-4.53643 5.37984,-4.5814 5.37983,-4.6148 5.37983,-4.63681 5.37983,-4.6471 5.37983,-4.64584 5.37983,-4.63302 5.37983,-4.60847 5.37982,-4.57248 5.37983,-4.52512 5.37983,-4.46636 5.37982,-4.39645 5.37984,-4.31562 5.37983,-4.22394 5.37982,-4.12177 5.37984,-4.00904 5.37982,-3.88661 5.37984,-3.75458 5.37982,-3.61281 5.37983,-3.46219 5.37983,-3.30276 5.37984,-3.13495 5.37982,-2.95969 5.37984,-2.77701 5.37982,-2.58735 5.37983,-2.39072 5.37984,-2.18897 5.3798,-1.98118 5.37984,-1.76829 5.37983,-1.55167 5.37983,-1.33039 5.37983,-1.10634 5.37983,-0.87903 5.37983,-0.65033 5.37983,-0.4193 5.37983,-0.18733 5.37983,0.0451 5.37983,0.27752 5.37982,0.50853 5.37984,0.73911 5.37982,0.96736 5.37984,1.19373 5.37983,1.41639 5.37983,1.63627 5.37982,1.85103 5.37982,2.06207 5.37984,2.268 5.37983,2.46789 5.37982,2.66126 5.37983,2.84859 5.37984,3.02849 5.37982,3.20142 5.37984,3.3655 5.37982,3.52124 5.37983,3.66859 5.37984,3.80711 5.37982,3.93541 5.37984,4.0539 5.37982,4.1625 5.37983,4.2608 5.37983,4.3482 5.37982,4.42495 5.37983,4.49039 5.37984,4.54492 5.37982,4.58774 5.37983,4.61944 5.37984,4.63928 5.37981,4.64783 5.37984,4.64441 5.37982,4.62977 5.37984,4.60316 5.37983,4.56547 5.37983,4.51591 5.37983,4.4555 5.37983,4.38356 5.37983,4.30107 5.37983,4.2074 5.37983,4.10364 5.37981,3.98919 5.37984,3.86522 5.37982,3.73088 5.37984,3.58816 5.37983,3.43617 5.37983,3.27487 5.38091,3.10612 5.37982,2.92995 5.37983,2.74539 5.37982,2.55435 5.37984,2.35771 5.37983,2.15411 5.37983,1.94539 5.37983,1.7325 5.37984,1.51447 5.37981,1.29275 5.37984,1.06822 5.37981,0.84092 5.37983,0.61127 5.37984,0.38025 5.37982,0.14829 5.37984,-0.0841 5.37983,-0.31611 5.37983,-0.54758 5.37983,-0.7777 5.37983,-1.00593 5.37983,-1.23093 5.37983,-1.45404 5.37982,-1.67252 5.37983,-1.8873 5.37984,-2.09693"
     id="path6449"
     inkscape:connector-curvature="0" />
  <path
     style="fill:none;stroke:#b00000;stroke-width:3;stroke-linecap:butt;stroke-linejoin:miter;stroke-miterlimit:4;stroke-opacity:1;stroke-dasharray:none"
     d="m 6.2822139,137.74167 5.3016561,2.52375 5.301655,2.72654 5.301656,2.92355 5.301656,3.11232 5.301656,3.29383 5.301657,3.46712 5.301655,3.6312 5.301657,3.78706 5.301654,3.93227 5.301657,4.06877 5.301655,4.19475 5.301657,4.31006 5.301656,4.41471 5.301656,4.50832 5.301656,4.59069 5.301656,4.66151 5.301656,4.72076 5.301655,4.76819 5.30166,4.80367 5.30166,4.8272 5.30165,4.83858 5.30166,4.83797 5.30165,4.82516 5.30165,4.80038 5.30167,4.76355 5.30166,4.71485 5.30164,4.6543 5.30166,4.58222 5.30166,4.49859 5.30166,4.40376 5.30165,4.29791 5.30166,4.18121 5.30165,4.05424 5.30166,3.91726 5.30166,3.77013 5.30165,3.61378 5.30166,3.44823 5.30166,3.27448 5.30164,3.09198 5.30167,2.90225 5.30166,2.70525 5.30165,2.50099 5.30165,2.29044 5.30166,2.07504 5.30165,1.85384 5.30167,1.6278 5.30165,1.39789 5.30165,1.16506 5.30166,0.92836 5.30165,0.69024 5.30166,0.44966 5.30166,0.20813 5.30165,-0.0334 5.30166,-0.27541 5.30165,-0.51647 5.30166,-0.75654 5.30166,-0.99468 5.30166,-1.22992 5.30164,-1.46226 5.30166,-1.69121 5.30167,-1.91532 5.30165,-2.13554 5.30165,-2.34949 5.30166,-2.55858 5.30165,-2.76044 5.30166,-2.95548 5.30166,-3.14331 5.30165,-3.32384 5.30166,-3.49519 5.30166,-3.65782 5.30164,-3.81223 5.30167,-3.95599 5.30166,-4.09055 5.30165,-4.21499 5.30165,-4.32835 5.30166,-4.43126 5.30166,-4.52299 5.30166,-4.60332 5.30165,-4.67231 5.30165,-4.72956 5.30166,-4.77502 5.30166,-4.80846 5.30165,-4.82999 5.30166,-4.83936 5.30165,-4.83667 5.30166,-4.82188 5.30165,-4.79505 5.30166,-4.75619 5.30166,-4.70552 5.30166,-4.64301 5.30164,-4.56896 5.30166,-4.48344 5.30167,-4.38678 5.30165,-4.27908 5.30165,-4.16083 5.30166,-4.03197 5.30165,-3.89307 5.30167,-3.74446 5.30165,-3.58667 5.30165,-3.41968 5.30166,-3.24398 5.30166,-3.06102 5.30165,-2.86933 5.30166,-2.67137 5.30166,-2.46565 5.30165,-2.25511 5.30165,-2.03777 5.30166,-1.81608 5.30166,-1.58956 5.30166,-1.35916 5.30165,-1.12538 5.30165,-0.88868 5.30166,-0.64957 5.30167,-0.409 5.30164,-0.16796 5.30166,0.0745 5.30166,0.31607 5.30165,0.55712 5.30166,0.79672 5.30165,1.03389 5.30166,1.26961 5.30271,1.50098 5.30166,1.72897 5.30165,1.95306 5.30167,2.17185 5.30165,2.38531 5.30165,2.59295 5.30166,2.79382 5.30166,2.98745 5.30165,3.17476 5.30166,3.35289 5.30165,3.52326 5.30166,3.68444 5.30165,3.83691 5.30166,3.97971 5.30166,4.11233 5.30166,4.23469 5.30164,4.34651 5.30166,4.44742 5.30166,4.53736 5.30166,4.61582 5.30165,4.68275 5.30166,4.73809 5.30165,4.78145 5.30166,4.81297 5.30166,4.83238"
     id="path6451"
     inkscape:connector-curvature="0" />
  <path
     style="fill:none;stroke:#0000b5;stroke-width:3;stroke-linecap:butt;stroke-linejoin:miter;stroke-miterlimit:4;stroke-opacity:1;stroke-dasharray:none"
     d="m 5.7557319,221.28063 0,0 5.3016561,-4.82076 5.301656,-4.80872 5.301655,-4.78462 5.301657,-4.74864 5.301656,-4.70071 5.301656,-4.64105 5.301656,-4.56986 5.301655,-4.48715 5.301656,-4.39326 5.301656,-4.2884 5.301656,-4.17263 5.301657,-4.04725 5.301655,-3.91031 5.301657,-3.76513 5.301655,-3.60936 5.301657,-3.44491 5.301655,-3.27225 5.301657,-3.09091 5.30166,-2.90234 5.30165,-2.70606 5.30166,-2.5035 5.30164,-2.29371 5.30166,-2.07958 5.30166,-1.85918 5.30166,-1.63443 5.30165,-1.40585 5.30166,-1.17337 5.30165,-0.93803 5.30166,-0.70075 5.30165,-0.46105 5.30166,-0.22089 5.30166,0.0202 5.30165,0.26139 5.30165,0.50157 5.30167,0.74078 5.30165,0.97758 5.30166,1.21293 5.30165,1.44441 5.30165,1.67254 5.30167,1.89631 5.30166,2.11575 5.30164,2.32988 5.30166,2.53774 5.30166,2.73982 5.30165,2.93417 5.30166,3.12226 5.30166,3.30167 5.30165,3.47336 5.30166,3.63636 5.30165,3.78974 5.30166,3.93442 5.30166,4.06896 5.30166,4.19278 5.30164,4.30678 5.30166,4.4098 5.30167,4.50186 5.30165,4.58259 5.30165,4.6519 5.30166,4.70962 5.30165,4.7555 5.30167,4.78949 5.30165,4.8116 5.30165,4.82159 5.30166,4.81959 5.30165,4.80546 5.30165,4.77945 5.30167,4.74138 5.30165,4.69149 5.30166,4.6299 5.30165,4.5567 5.30165,4.47216 5.30167,4.37642 5.30166,4.26969 5.30164,4.15245 5.30166,4.02461 5.30166,3.88667 5.30166,3.73957 5.30165,3.58236 5.30166,3.41645 5.30165,3.24234 5.30166,3.06005 5.30166,2.86955 5.30165,2.6723 5.30166,2.46877 5.30166,2.2585 5.30164,2.04245 5.30166,1.82156 5.30167,1.59634 5.30165,1.36725 5.30165,1.13383 5.30166,0.89849 5.30165,0.66023 5.30167,0.42103 5.30165,0.18037 5.30165,-0.0607 5.30166,-0.30191 5.30166,-0.54207 5.30165,-0.78033 5.30166,-1.0176 5.30166,-1.25199 5.30165,-1.483 5.30165,-1.71064 5.30166,-1.93393 5.30166,-2.15191 5.30166,-2.3651 5.30164,-2.57247 5.30166,-2.7726 5.30166,-2.96649 5.30166,-3.15312 5.30165,-3.33109 5.30166,-3.50133 5.30165,-3.6629 5.30166,-3.81481 5.30166,-3.95757 5.30165,-4.09067 5.30166,-4.21283 5.30166,-4.32492 5.30164,-4.42609 5.30167,-4.51623 5.30166,-4.5951 5.30165,-4.66245 5.30271,-4.71817 5.30166,-4.76209 5.30165,-4.79409 5.30167,-4.81413 5.30165,-4.82213 5.30165,-4.81806 5.30166,-4.80198 5.30166,-4.77387 5.30165,-4.73384 5.30166,-4.68199 5.30166,-4.61838 5.30165,-4.54328 5.30165,-4.45683 5.30167,-4.35925 5.30165,-4.25069 5.30166,-4.13167 5.30165,-4.00193 5.30165,-3.86304 5.30166,-3.71353 5.30167,-3.55486 5.30164,-3.38801 5.30166,-3.21195 5.30166,-3.02871 5.30165,-2.83675 5.30166,-2.63854"
     id="path6453"
     inkscape:connector-curvature="0" />
</svg>
