<?xml version="1.0" encoding="UTF-8" standalone="no"?>
<!-- Created with Inkscape (http://www.inkscape.org/) -->

<svg
   xmlns:dc="http://purl.org/dc/elements/1.1/"
   xmlns:cc="http://creativecommons.org/ns#"
   xmlns:rdf="http://www.w3.org/1999/02/22-rdf-syntax-ns#"
   xmlns:svg="http://www.w3.org/2000/svg"
   xmlns="http://www.w3.org/2000/svg"
   xmlns:xlink="http://www.w3.org/1999/xlink"
   xmlns:sodipodi="http://sodipodi.sourceforge.net/DTD/sodipodi-0.dtd"
   xmlns:inkscape="http://www.inkscape.org/namespaces/inkscape"
   width="750"
   height="525"
   id="svg2"
   version="1.1"
   inkscape:version="0.92.2 5c3e80d, 2017-08-06"
   sodipodi:docname="Schema_Ankerwicklung.svg"
   inkscape:export-filename="/home/mik/Dokumente/Wikipedia/2011/ankerwicklung/Schema Ankerwicklung 2.png"
   inkscape:export-xdpi="150"
   inkscape:export-ydpi="150">
  <defs
     id="defs4">
    <linearGradient
       id="linearGradient4756">
      <stop
         style="stop-color:#ff0000;stop-opacity:1;"
         offset="0"
         id="stop4758" />
      <stop
         id="stop4764"
         offset="0.5"
         style="stop-color:#00ff00;stop-opacity:1;" />
      <stop
         style="stop-color:#ff0000;stop-opacity:1;"
         offset="1"
         id="stop4760" />
    </linearGradient>
    <inkscape:path-effect
       effect="spiro"
       id="path-effect3986"
       is_visible="true" />
    <inkscape:path-effect
       effect="spiro"
       id="path-effect3545"
       is_visible="true" />
    <inkscape:path-effect
       effect="spiro"
       id="path-effect3368"
       is_visible="true" />
    <inkscape:path-effect
       effect="spiro"
       id="path-effect4091"
       is_visible="true" />
    <inkscape:path-effect
       effect="spiro"
       id="path-effect4087"
       is_visible="true" />
    <inkscape:path-effect
       effect="spiro"
       id="path-effect3982"
       is_visible="true" />
    <inkscape:path-effect
       effect="spiro"
       id="path-effect3978"
       is_visible="true" />
    <inkscape:path-effect
       effect="spiro"
       id="path-effect3978-6"
       is_visible="true" />
    <inkscape:path-effect
       effect="spiro"
       id="path-effect3978-1"
       is_visible="true" />
    <inkscape:path-effect
       effect="spiro"
       id="path-effect3982-4"
       is_visible="true" />
    <inkscape:path-effect
       effect="spiro"
       id="path-effect3982-40"
       is_visible="true" />
    <inkscape:path-effect
       effect="spiro"
       id="path-effect3368-1"
       is_visible="true" />
    <inkscape:path-effect
       effect="spiro"
       id="path-effect3368-7"
       is_visible="true" />
    <inkscape:path-effect
       effect="spiro"
       id="path-effect3368-7-7"
       is_visible="true" />
    <inkscape:path-effect
       effect="spiro"
       id="path-effect3368-7-1"
       is_visible="true" />
    <inkscape:path-effect
       effect="spiro"
       id="path-effect3368-7-7-2"
       is_visible="true" />
    <inkscape:path-effect
       effect="spiro"
       id="path-effect3368-7-1-3"
       is_visible="true" />
    <inkscape:path-effect
       effect="spiro"
       id="path-effect3368-7-7-7"
       is_visible="true" />
    <inkscape:path-effect
       effect="spiro"
       id="path-effect3545-1"
       is_visible="true" />
    <inkscape:path-effect
       effect="spiro"
       id="path-effect3545-0"
       is_visible="true" />
    <inkscape:path-effect
       effect="spiro"
       id="path-effect3545-0-1"
       is_visible="true" />
    <inkscape:path-effect
       effect="spiro"
       id="path-effect3545-0-6"
       is_visible="true" />
    <inkscape:path-effect
       effect="spiro"
       id="path-effect3545-0-13"
       is_visible="true" />
    <inkscape:path-effect
       effect="spiro"
       id="path-effect3368-7-1-8"
       is_visible="true" />
    <inkscape:path-effect
       effect="spiro"
       id="path-effect3545-1-9"
       is_visible="true" />
    <inkscape:path-effect
       effect="spiro"
       id="path-effect3545-1-9-3"
       is_visible="true" />
    <inkscape:path-effect
       effect="spiro"
       id="path-effect3545-1-9-8"
       is_visible="true" />
    <inkscape:path-effect
       effect="spiro"
       id="path-effect3368-0"
       is_visible="true" />
    <inkscape:path-effect
       effect="spiro"
       id="path-effect3368-0-0"
       is_visible="true" />
    <inkscape:path-effect
       effect="spiro"
       id="path-effect3368-0-6"
       is_visible="true" />
    <inkscape:path-effect
       effect="spiro"
       id="path-effect3368-0-9"
       is_visible="true" />
    <inkscape:path-effect
       effect="spiro"
       id="path-effect3368-0-6-5"
       is_visible="true" />
    <inkscape:path-effect
       effect="spiro"
       id="path-effect3368-6"
       is_visible="true" />
    <inkscape:path-effect
       effect="spiro"
       id="path-effect3368-6-9"
       is_visible="true" />
    <inkscape:path-effect
       effect="spiro"
       id="path-effect3368-6-97"
       is_visible="true" />
    <inkscape:path-effect
       effect="spiro"
       id="path-effect3368-6-5"
       is_visible="true" />
    <inkscape:path-effect
       effect="spiro"
       id="path-effect3368-6-3"
       is_visible="true" />
    <inkscape:path-effect
       effect="spiro"
       id="path-effect3368-6-93"
       is_visible="true" />
    <inkscape:path-effect
       effect="spiro"
       id="path-effect3368-6-9-7"
       is_visible="true" />
    <inkscape:path-effect
       effect="spiro"
       id="path-effect3368-6-9-1"
       is_visible="true" />
    <inkscape:path-effect
       effect="spiro"
       id="path-effect3368-6-9-0"
       is_visible="true" />
    <inkscape:path-effect
       effect="spiro"
       id="path-effect3368-6-9-8"
       is_visible="true" />
    <inkscape:path-effect
       effect="spiro"
       id="path-effect3368-6-9-4"
       is_visible="true" />
    <inkscape:path-effect
       effect="spiro"
       id="path-effect3368-6-9-71"
       is_visible="true" />
    <linearGradient
       inkscape:collect="always"
       xlink:href="#linearGradient4756"
       id="linearGradient4762"
       x1="74.5"
       y1="262.5"
       x2="675.5"
       y2="262.5"
       gradientUnits="userSpaceOnUse"
       gradientTransform="translate(0,527.36218)" />
  </defs>
  <sodipodi:namedview
     id="base"
     pagecolor="#ffffff"
     bordercolor="#666666"
     borderopacity="1.0"
     inkscape:pageopacity="0.0"
     inkscape:pageshadow="2"
     inkscape:zoom="0.6470027"
     inkscape:cx="360.36942"
     inkscape:cy="114.52937"
     inkscape:document-units="px"
     inkscape:current-layer="layer1"
     showgrid="true"
     inkscape:window-width="1920"
     inkscape:window-height="1016"
     inkscape:window-x="0"
     inkscape:window-y="27"
     inkscape:window-maximized="1">
    <inkscape:grid
       type="xygrid"
       id="grid3053"
       empspacing="5"
       visible="true"
       enabled="true"
       snapvisiblegridlinesonly="true"
       spacingx="5"
       spacingy="5"
       originx="0"
       originy="0" />
  </sodipodi:namedview>
  <metadata
     id="metadata7">
    <rdf:RDF>
      <cc:Work
         rdf:about="">
        <dc:format>image/svg+xml</dc:format>
        <dc:type
           rdf:resource="http://purl.org/dc/dcmitype/StillImage" />
        <dc:title />
      </cc:Work>
    </rdf:RDF>
  </metadata>
  <g
     inkscape:label="Ebene 1"
     inkscape:groupmode="layer"
     id="layer1"
     transform="translate(0,-527.36218)">
    <path
       style="opacity:0.5;fill:url(#linearGradient4762);fill-opacity:1;stroke:none"
       d="m 75,727.36218 v 125 h 600 v -125 z"
       id="path3984"
       inkscape:path-effect="#path-effect3986"
       inkscape:original-d="m 75,727.36218 v 125 h 600 v -125 z"
       inkscape:connector-curvature="0" />
    <path
       style="fill:none;stroke:#ff0000;stroke-width:2;stroke-linecap:butt;stroke-linejoin:miter;stroke-opacity:1"
       d="m 525,977.36218 v 50.00002"
       id="path3346-9"
       inkscape:connector-curvature="0" />
    <path
       style="fill:#917c6f;stroke:#000000;stroke-width:2;stroke-linecap:butt;stroke-linejoin:miter;stroke-opacity:1"
       d="m 200,952.36218 v 25 h 50 v -25"
       id="path3326"
       inkscape:connector-curvature="0" />
    <path
       style="fill:#917c6f;stroke:#000000;stroke-width:2;stroke-linecap:butt;stroke-linejoin:miter;stroke-opacity:1"
       d="m 500,952.36218 v 25 h 50 v -25"
       id="path3326-5"
       inkscape:connector-curvature="0" />
    <text
       xml:space="preserve"
       style="font-style:normal;font-variant:normal;font-weight:normal;font-stretch:normal;line-height:0%;font-family:'Nimbus Sans L';-inkscape-font-specification:'Nimbus Sans L';text-align:center;letter-spacing:0px;word-spacing:0px;writing-mode:lr-tb;text-anchor:middle;fill:#000000;fill-opacity:1;stroke:none"
       x="75"
       y="602.36218"
       id="text3837"><tspan
         sodipodi:role="line"
         id="tspan3839"
         x="75"
         y="602.36218"
         style="font-style:normal;font-variant:normal;font-weight:normal;font-stretch:normal;font-size:48px;line-height:1;font-family:'Nimbus Roman No9 L';-inkscape-font-specification:'Nimbus Roman No9 L';text-align:center;text-anchor:middle">0°</tspan></text>
    <text
       xml:space="preserve"
       style="font-style:normal;font-variant:normal;font-weight:normal;font-stretch:normal;line-height:0%;font-family:'Nimbus Sans L';-inkscape-font-specification:'Nimbus Sans L';text-align:center;letter-spacing:0px;word-spacing:0px;writing-mode:lr-tb;text-anchor:middle;fill:#000000;fill-opacity:1;stroke:none"
       x="375"
       y="602.36218"
       id="text3837-3"><tspan
         sodipodi:role="line"
         id="tspan3839-8"
         x="375"
         y="602.36218"
         style="font-style:normal;font-variant:normal;font-weight:normal;font-stretch:normal;font-size:48px;line-height:1;font-family:'Nimbus Roman No9 L';-inkscape-font-specification:'Nimbus Roman No9 L';text-align:center;text-anchor:middle">180°</tspan></text>
    <text
       xml:space="preserve"
       style="font-style:normal;font-variant:normal;font-weight:normal;font-stretch:normal;line-height:0%;font-family:'Nimbus Sans L';-inkscape-font-specification:'Nimbus Sans L';text-align:center;letter-spacing:0px;word-spacing:0px;writing-mode:lr-tb;text-anchor:middle;fill:#000000;fill-opacity:1;stroke:none"
       x="675"
       y="602.36218"
       id="text3837-9"><tspan
         sodipodi:role="line"
         id="tspan3839-2"
         x="675"
         y="602.36218"
         style="font-style:normal;font-variant:normal;font-weight:normal;font-stretch:normal;font-size:48px;line-height:1;font-family:'Nimbus Roman No9 L';-inkscape-font-specification:'Nimbus Roman No9 L';text-align:center;text-anchor:middle">360°</tspan></text>
    <path
       style="fill:none;stroke:#000000;stroke-width:3;stroke-linecap:butt;stroke-linejoin:miter;stroke-opacity:1"
       d="m 75,612.36218 v 15"
       id="path3891"
       inkscape:connector-curvature="0" />
    <path
       style="fill:none;stroke:#000000;stroke-width:3;stroke-linecap:butt;stroke-linejoin:miter;stroke-opacity:1"
       d="m 375,612.36218 v 15"
       id="path3893"
       inkscape:connector-curvature="0" />
    <path
       style="fill:none;stroke:#000000;stroke-width:3;stroke-linecap:butt;stroke-linejoin:miter;stroke-opacity:1"
       d="m 675,612.36218 v 15"
       id="path3895"
       inkscape:connector-curvature="0" />
    <text
       xml:space="preserve"
       style="font-style:normal;font-variant:normal;font-weight:normal;font-stretch:normal;line-height:0%;font-family:'Nimbus Sans L';-inkscape-font-specification:'Nimbus Sans L';text-align:center;letter-spacing:0px;word-spacing:0px;writing-mode:lr-tb;text-anchor:middle;fill:#000000;fill-opacity:1;stroke:none"
       x="225"
       y="602.36218"
       id="text3837-3-9"><tspan
         sodipodi:role="line"
         id="tspan3839-8-7"
         x="225"
         y="602.36218"
         style="font-style:normal;font-variant:normal;font-weight:normal;font-stretch:normal;font-size:48px;line-height:1;font-family:'Nimbus Roman No9 L';-inkscape-font-specification:'Nimbus Roman No9 L';text-align:center;text-anchor:middle">90°</tspan></text>
    <path
       style="fill:none;stroke:#000000;stroke-width:3;stroke-linecap:butt;stroke-linejoin:miter;stroke-opacity:1"
       d="m 224.99999,612.36217 v 15"
       id="path3893-4"
       inkscape:connector-curvature="0" />
    <text
       xml:space="preserve"
       style="font-style:normal;font-variant:normal;font-weight:normal;font-stretch:normal;line-height:0%;font-family:'Nimbus Sans L';-inkscape-font-specification:'Nimbus Sans L';text-align:center;letter-spacing:0px;word-spacing:0px;writing-mode:lr-tb;text-anchor:middle;fill:#000000;fill-opacity:1;stroke:none"
       x="525"
       y="602.36218"
       id="text3837-3-0"><tspan
         sodipodi:role="line"
         id="tspan3839-8-3"
         x="525"
         y="602.36218"
         style="font-style:normal;font-variant:normal;font-weight:normal;font-stretch:normal;font-size:48px;line-height:1;font-family:'Nimbus Roman No9 L';-inkscape-font-specification:'Nimbus Roman No9 L';text-align:center;text-anchor:middle">270°</tspan></text>
    <path
       style="fill:none;stroke:#000000;stroke-width:3;stroke-linecap:butt;stroke-linejoin:miter;stroke-opacity:1"
       d="m 524.99999,612.36218 v 15"
       id="path3893-46"
       inkscape:connector-curvature="0" />
    <g
       id="g3391"
       transform="translate(0,100)">
      <path
         transform="translate(0,452.36218)"
         inkscape:connector-curvature="0"
         id="path3346"
         d="m 225,425 v 50"
         style="fill:none;stroke:#ff0000;stroke-width:2;stroke-linecap:butt;stroke-linejoin:miter;stroke-opacity:1" />
      <path
         sodipodi:nodetypes="cccc"
         inkscape:connector-curvature="0"
         inkscape:original-d="m 225,894.86218 -5,12.5 h 10 z"
         inkscape:path-effect="#path-effect3368"
         id="path3366"
         d="m 225,894.86218 -5,12.5 h 10 z"
         style="fill:#ff0000;stroke:none" />
    </g>
    <path
       style="fill:#ff0000;stroke:none"
       d="m 525,1009.8622 -5,-12.50002 h 10 z"
       id="path3366-3"
       inkscape:path-effect="#path-effect3368-1"
       inkscape:original-d="m 525,1009.8622 -5,-12.50002 h 10 z"
       inkscape:connector-curvature="0"
       sodipodi:nodetypes="cccc" />
    <g
       id="g3970"
       style="stroke:#ff0000"
       transform="translate(0,75)">
      <path
         inkscape:connector-curvature="0"
         id="path3802"
         d="m 225,852.36218 -125,-75"
         style="fill:none;stroke:#ff0000;stroke-width:2;stroke-linecap:butt;stroke-linejoin:miter;stroke-opacity:1" />
      <path
         inkscape:connector-curvature="0"
         id="path3802-3"
         d="m 325,852.36218 -125,-75"
         style="fill:none;stroke:#ff0000;stroke-width:2;stroke-linecap:butt;stroke-linejoin:miter;stroke-opacity:1" />
      <path
         inkscape:connector-curvature="0"
         id="path3802-34"
         d="m 425,852.36218 -125,-75"
         style="fill:none;stroke:#ff0000;stroke-width:2;stroke-linecap:butt;stroke-linejoin:miter;stroke-opacity:1" />
      <path
         inkscape:connector-curvature="0"
         id="path3802-2"
         d="m 525,852.36218 -125,-75"
         style="fill:none;stroke:#ff0000;stroke-width:2;stroke-linecap:butt;stroke-linejoin:miter;stroke-opacity:1" />
      <path
         inkscape:connector-curvature="0"
         id="path3802-4"
         d="m 625,852.36218 -125,-75"
         style="fill:none;stroke:#ff0000;stroke-width:2;stroke-linecap:butt;stroke-linejoin:miter;stroke-opacity:1" />
      <path
         inkscape:connector-curvature="0"
         id="path3802-5"
         d="m 675,822.36218 -75,-45"
         style="fill:none;stroke:#ff0000;stroke-width:2;stroke-linecap:butt;stroke-linejoin:miter;stroke-opacity:1"
         sodipodi:nodetypes="cc" />
      <path
         inkscape:connector-curvature="0"
         id="path3802-38"
         d="m 125,852.36218 -50,-30"
         style="fill:none;stroke:#ff0000;stroke-width:2;stroke-linecap:butt;stroke-linejoin:miter;stroke-opacity:1"
         sodipodi:nodetypes="cc" />
    </g>
    <g
       id="g4041"
       transform="translate(0,-200)">
      <path
         inkscape:connector-curvature="0"
         id="path3796-3"
         d="m 225,1127.3622 125,-75"
         style="fill:none;stroke:#ffffff;stroke-width:6;stroke-linecap:butt;stroke-linejoin:miter;stroke-opacity:1" />
      <path
         inkscape:connector-curvature="0"
         id="path3798-0"
         d="m 325,1127.3622 125,-75"
         style="fill:none;stroke:#ffffff;stroke-width:6;stroke-linecap:butt;stroke-linejoin:miter;stroke-opacity:1" />
      <path
         inkscape:connector-curvature="0"
         id="path3800-00"
         d="m 425,1127.3622 125,-75"
         style="fill:none;stroke:#ffffff;stroke-width:6;stroke-linecap:butt;stroke-linejoin:miter;stroke-opacity:1" />
      <path
         inkscape:connector-curvature="0"
         id="path3800-3-2"
         d="m 525,1127.3622 125,-75"
         style="fill:none;stroke:#ffffff;stroke-width:6;stroke-linecap:butt;stroke-linejoin:miter;stroke-opacity:1" />
      <path
         inkscape:connector-curvature="0"
         id="path3800-39-2"
         d="m 625,1127.3622 50,-30"
         style="fill:none;stroke:#ffffff;stroke-width:6;stroke-linecap:butt;stroke-linejoin:miter;stroke-opacity:1"
         sodipodi:nodetypes="cc" />
      <path
         inkscape:connector-curvature="0"
         id="path3800-0-2"
         d="m 125,1127.3622 125,-75"
         style="fill:none;stroke:#ffffff;stroke-width:6;stroke-linecap:butt;stroke-linejoin:miter;stroke-opacity:1" />
      <path
         inkscape:connector-curvature="0"
         id="path3800-4-4"
         d="m 75,1097.3622 75,-45"
         style="fill:none;stroke:#ffffff;stroke-width:6;stroke-linecap:butt;stroke-linejoin:miter;stroke-opacity:1"
         sodipodi:nodetypes="cc" />
    </g>
    <g
       id="g3986"
       transform="translate(0,-200)">
      <path
         inkscape:connector-curvature="0"
         id="path3796"
         d="m 225,1127.3622 125,-75"
         style="fill:none;stroke:#ff0000;stroke-width:2;stroke-linecap:butt;stroke-linejoin:miter;stroke-opacity:1" />
      <path
         inkscape:connector-curvature="0"
         id="path3798"
         d="m 325,1127.3622 125,-75"
         style="fill:none;stroke:#ff0000;stroke-width:2;stroke-linecap:butt;stroke-linejoin:miter;stroke-opacity:1" />
      <path
         inkscape:connector-curvature="0"
         id="path3800"
         d="m 425,1127.3622 125,-75"
         style="fill:none;stroke:#ff0000;stroke-width:2;stroke-linecap:butt;stroke-linejoin:miter;stroke-opacity:1" />
      <path
         inkscape:connector-curvature="0"
         id="path3800-3"
         d="m 525,1127.3622 125,-75"
         style="fill:none;stroke:#ff0000;stroke-width:2;stroke-linecap:butt;stroke-linejoin:miter;stroke-opacity:1" />
      <path
         inkscape:connector-curvature="0"
         id="path3800-39"
         d="m 625,1127.3622 50,-30"
         style="fill:none;stroke:#ff0000;stroke-width:2;stroke-linecap:butt;stroke-linejoin:miter;stroke-opacity:1"
         sodipodi:nodetypes="cc" />
      <path
         inkscape:connector-curvature="0"
         id="path3800-0"
         d="m 125,1127.3622 125,-75"
         style="fill:none;stroke:#ff0000;stroke-width:2;stroke-linecap:butt;stroke-linejoin:miter;stroke-opacity:1" />
      <path
         inkscape:connector-curvature="0"
         id="path3800-4"
         d="m 75,1097.3622 75,-45"
         style="fill:none;stroke:#ff0000;stroke-width:2;stroke-linecap:butt;stroke-linejoin:miter;stroke-opacity:1"
         sodipodi:nodetypes="cc" />
    </g>
    <path
       style="fill:none;stroke:#ff0000;stroke-width:2;stroke-linecap:butt;stroke-linejoin:miter;stroke-opacity:1"
       d="m 75,677.36218 h 100 c 15,0 25,10 25,25 v 25"
       id="path3543-9-1-7-1"
       inkscape:connector-curvature="0"
       sodipodi:nodetypes="cccc" />
    <path
       style="fill:none;stroke:#ff0000;stroke-width:2;stroke-linecap:butt;stroke-linejoin:miter;stroke-opacity:1"
       d="m 550,727.36218 v -25 c 0,-15 10,-25 25,-25 h 100"
       id="path3543-9-17-2-0"
       inkscape:connector-curvature="0"
       sodipodi:nodetypes="cccc" />
    <g
       id="g3413"
       transform="translate(0,75)">
      <path
         sodipodi:nodetypes="cccccc"
         inkscape:connector-curvature="0"
         id="path3543-7-6"
         d="m 150,652.36218 v -50 c 0,-15 10,-25 25,-25 h 200 c 15,0 25,10 25,25 v 50"
         style="fill:none;stroke:#ff0000;stroke-width:2;stroke-linecap:butt;stroke-linejoin:miter;stroke-opacity:1" />
      <path
         sodipodi:nodetypes="cc"
         inkscape:connector-curvature="0"
         id="path3543-9-6-9-8-6"
         d="m 650,652.36218 c 0,-15 10,-25 25,-25"
         style="fill:none;stroke:#ff0000;stroke-width:2;stroke-linecap:butt;stroke-linejoin:miter;stroke-opacity:1" />
      <path
         sodipodi:nodetypes="ccc"
         inkscape:connector-curvature="0"
         id="path3543-9-6-95-0-1"
         d="m 75,627.36218 h 200 c 15,0 25,10 25,25"
         style="fill:none;stroke:#ff0000;stroke-width:2;stroke-linecap:butt;stroke-linejoin:miter;stroke-opacity:1" />
      <path
         sodipodi:nodetypes="cccc"
         inkscape:connector-curvature="0"
         inkscape:original-d="m 450,652.36218 v -50 c 0,-15 10,-25 25,-25 h 200"
         inkscape:path-effect="#path-effect3545-1-9-3"
         id="path3543-3-0-9"
         d="m 450,652.36218 v -50 c 0,-3.44271 0.0468,-6.9223 0.8833,-10.26183 0.83651,-3.33954 2.4837,-6.50244 4.91806,-8.93681 2.43437,-2.43436 5.59727,-4.08155 8.93681,-4.91806 3.33953,-0.83651 6.81912,-0.8833 10.26183,-0.8833 h 200"
         style="fill:none;stroke:#ff0000;stroke-width:2;stroke-linecap:butt;stroke-linejoin:miter;stroke-opacity:1" />
      <path
         sodipodi:nodetypes="ccc"
         inkscape:connector-curvature="0"
         inkscape:original-d="m 75,577.36218 c 15,0 25,10 25,25 v 50"
         inkscape:path-effect="#path-effect3545-1-9-8"
         id="path3543-3-0-8"
         d="m 75,577.36218 c 3.276753,-1.50434 7.060962,-1.86861 10.568217,-1.03236 3.507256,0.83625 6.700334,2.8606 9.047161,5.59785 2.346826,2.73726 3.837016,6.14321 4.592381,9.66877 C 99.963124,595.12201 100,598.75661 100,602.36218 v 50"
         style="fill:none;stroke:#ff0000;stroke-width:2;stroke-linecap:butt;stroke-linejoin:miter;stroke-opacity:1" />
      <path
         style="fill:none;stroke:#ff0000;stroke-width:2;stroke-linecap:butt;stroke-linejoin:miter;stroke-opacity:1"
         d="m 350,652.36218 c 0,-15 10,-25 25,-25 h 200 c 15,0 25,10 25,25"
         id="path3543-9-6-6-2"
         inkscape:connector-curvature="0"
         sodipodi:nodetypes="cccc" />
      <path
         style="fill:none;stroke:#ff0000;stroke-width:2;stroke-linecap:butt;stroke-linejoin:miter;stroke-opacity:1"
         d="m 250,652.36218 v -25 c 0,-15 10,-25 25,-25 h 200 c 15,0 25,10 25,25 v 25"
         id="path3543-9-4-2"
         inkscape:connector-curvature="0"
         sodipodi:nodetypes="cccccc" />
    </g>
    <g
       id="g3391-4-9"
       transform="rotate(-59,225,927.36218)">
      <path
         sodipodi:nodetypes="cccc"
         inkscape:connector-curvature="0"
         inkscape:original-d="m 225,894.86218 -5,12.5 h 10 z"
         inkscape:path-effect="#path-effect3368-0-0"
         id="path3366-2-9"
         d="m 225,894.86218 -5,12.5 h 10 z"
         style="fill:#ff0000;stroke:none" />
    </g>
    <g
       id="g3391-4-2"
       transform="rotate(121,360.85565,987.22809)">
      <path
         sodipodi:nodetypes="cccc"
         inkscape:connector-curvature="0"
         inkscape:original-d="m 225,894.86218 -5,12.5 h 10 z"
         inkscape:path-effect="#path-effect3368-0-6"
         id="path3366-2-4"
         d="m 225,894.86218 -5,12.5 h 10 z"
         style="fill:#ff0000;stroke:none" />
    </g>
    <g
       id="g3391-4-93"
       transform="matrix(-0.51503809,-0.85716731,-0.85716731,0.51503809,1135.7881,642.59798)">
      <path
         sodipodi:nodetypes="cccc"
         inkscape:connector-curvature="0"
         inkscape:original-d="m 225,894.86218 -5,12.5 h 10 z"
         inkscape:path-effect="#path-effect3368-0-9"
         id="path3366-2-0"
         d="m 225,894.86218 -5,12.5 h 10 z"
         style="fill:#ff0000;stroke:none" />
    </g>
    <g
       id="g3391-4-2-0"
       transform="matrix(0.51503809,0.85716731,0.85716731,-0.51503809,-342.92975,1186.3745)">
      <path
         sodipodi:nodetypes="cccc"
         inkscape:connector-curvature="0"
         inkscape:original-d="m 225,894.86218 -5,12.5 h 10 z"
         inkscape:path-effect="#path-effect3368-0-6-5"
         id="path3366-2-4-9"
         d="m 225,894.86218 -5,12.5 h 10 z"
         style="fill:#ff0000;stroke:none" />
    </g>
    <g
       id="g3914"
       transform="translate(0,75)">
      <path
         inkscape:connector-curvature="0"
         inkscape:original-d="m 75,852.36218 h 100 v 25 H 75 Z"
         inkscape:path-effect="#path-effect3978"
         id="path3976"
         d="m 75,852.36218 h 100 v 25 H 75 Z"
         style="fill:#ff7f2a;stroke:none" />
      <path
         inkscape:connector-curvature="0"
         inkscape:original-d="m 175,852.36218 v 25 h 100 v -25 z"
         inkscape:path-effect="#path-effect3982"
         id="path3980"
         d="m 175,852.36218 v 25 h 100 v -25 z"
         style="fill:#ff9955;stroke:none" />
      <path
         inkscape:connector-curvature="0"
         inkscape:original-d="m 275,852.36218 h 100 v 25 H 275 Z"
         inkscape:path-effect="#path-effect3978-6"
         id="path3976-9"
         d="m 275,852.36218 h 100 v 25 H 275 Z"
         style="fill:#ff7f2a;stroke:none" />
      <path
         inkscape:connector-curvature="0"
         inkscape:original-d="m 475,852.36218 h 100 v 25 H 475 Z"
         inkscape:path-effect="#path-effect3978-1"
         id="path3976-0"
         d="m 475,852.36218 h 100 v 25 H 475 Z"
         style="fill:#ff7f2a;stroke:none" />
      <path
         inkscape:connector-curvature="0"
         inkscape:original-d="m 375,852.36218 v 25 h 100 v -25 z"
         inkscape:path-effect="#path-effect3982-4"
         id="path3980-2"
         d="m 375,852.36218 v 25 h 100 v -25 z"
         style="fill:#ff9955;stroke:none" />
      <path
         inkscape:connector-curvature="0"
         inkscape:original-d="m 575,852.36218 v 25 h 100 v -25 z"
         inkscape:path-effect="#path-effect3982-40"
         id="path3980-3"
         d="m 575,852.36218 v 25 h 100 v -25 z"
         style="fill:#ff9955;stroke:none" />
      <path
         inkscape:connector-curvature="0"
         id="path4044"
         d="m 175,852.36218 v 25"
         style="fill:none;stroke:#000000;stroke-width:6;stroke-linecap:butt;stroke-linejoin:miter;stroke-opacity:1" />
      <path
         inkscape:connector-curvature="0"
         id="path4044-9"
         d="m 275,852.36218 v 25"
         style="fill:none;stroke:#000000;stroke-width:6;stroke-linecap:butt;stroke-linejoin:miter;stroke-opacity:1" />
      <path
         inkscape:connector-curvature="0"
         id="path4044-2"
         d="m 375,852.36218 v 25"
         style="fill:none;stroke:#000000;stroke-width:6;stroke-linecap:butt;stroke-linejoin:miter;stroke-opacity:1" />
      <path
         inkscape:connector-curvature="0"
         id="path4044-23"
         d="m 475,852.36218 v 25"
         style="fill:none;stroke:#000000;stroke-width:6;stroke-linecap:butt;stroke-linejoin:miter;stroke-opacity:1" />
      <path
         inkscape:connector-curvature="0"
         id="path4044-1"
         d="m 575,852.36218 v 25"
         style="fill:none;stroke:#000000;stroke-width:6;stroke-linecap:butt;stroke-linejoin:miter;stroke-opacity:1" />
      <path
         inkscape:connector-curvature="0"
         inkscape:original-d="M 75,852.36218 H 675"
         inkscape:path-effect="#path-effect4087"
         id="path4085"
         d="M 75,852.36218 H 675"
         style="fill:none;stroke:#000000;stroke-width:2;stroke-linecap:butt;stroke-linejoin:miter;stroke-opacity:1" />
      <path
         inkscape:connector-curvature="0"
         inkscape:original-d="M 675,877.36218 H 75"
         inkscape:path-effect="#path-effect4091"
         id="path4089"
         d="M 675,877.36218 H 75"
         style="fill:none;stroke:#000000;stroke-width:2;stroke-linecap:butt;stroke-linejoin:miter;stroke-opacity:1" />
    </g>
    <g
       id="g3929"
       transform="translate(0,75)">
      <path
         inkscape:connector-curvature="0"
         id="path3161"
         d="m 100,777.36218 v -125"
         style="fill:none;stroke:#ff0000;stroke-width:2;stroke-linecap:butt;stroke-linejoin:miter;stroke-opacity:1" />
      <path
         inkscape:connector-curvature="0"
         id="path3163"
         d="m 150,777.36218 v -125"
         style="fill:none;stroke:#ff0000;stroke-width:2;stroke-linecap:butt;stroke-linejoin:miter;stroke-opacity:1" />
      <path
         inkscape:connector-curvature="0"
         id="path3165"
         d="m 200,777.36218 v -125"
         style="fill:none;stroke:#ff0000;stroke-width:2;stroke-linecap:butt;stroke-linejoin:miter;stroke-opacity:1" />
      <path
         inkscape:connector-curvature="0"
         id="path3167"
         d="m 250,777.36218 v -125"
         style="fill:none;stroke:#ff0000;stroke-width:2;stroke-linecap:butt;stroke-linejoin:miter;stroke-opacity:1" />
      <path
         inkscape:connector-curvature="0"
         id="path3169"
         d="m 300,777.36218 v -125"
         style="fill:none;stroke:#ff0000;stroke-width:2;stroke-linecap:butt;stroke-linejoin:miter;stroke-opacity:1" />
      <path
         inkscape:connector-curvature="0"
         id="path3171"
         d="m 350,777.36218 v -125"
         style="fill:none;stroke:#ff0000;stroke-width:2;stroke-linecap:butt;stroke-linejoin:miter;stroke-opacity:1" />
      <path
         inkscape:connector-curvature="0"
         id="path3173"
         d="m 400,777.36218 v -125"
         style="fill:none;stroke:#ff0000;stroke-width:2;stroke-linecap:butt;stroke-linejoin:miter;stroke-opacity:1" />
      <path
         inkscape:connector-curvature="0"
         id="path3175"
         d="m 450,777.36218 v -125"
         style="fill:none;stroke:#ff0000;stroke-width:2;stroke-linecap:butt;stroke-linejoin:miter;stroke-opacity:1" />
      <path
         inkscape:connector-curvature="0"
         id="path3177"
         d="m 500,777.36218 v -125"
         style="fill:none;stroke:#ff0000;stroke-width:2;stroke-linecap:butt;stroke-linejoin:miter;stroke-opacity:1" />
      <path
         inkscape:connector-curvature="0"
         id="path3179"
         d="m 550,777.36218 v -125"
         style="fill:none;stroke:#ff0000;stroke-width:2;stroke-linecap:butt;stroke-linejoin:miter;stroke-opacity:1" />
      <path
         inkscape:connector-curvature="0"
         id="path3204"
         d="m 600,777.36218 v -125"
         style="fill:none;stroke:#ff0000;stroke-width:2;stroke-linecap:butt;stroke-linejoin:miter;stroke-opacity:1" />
      <path
         inkscape:connector-curvature="0"
         id="path3206"
         d="m 650,777.36218 v -125"
         style="fill:none;stroke:#ff0000;stroke-width:2;stroke-linecap:butt;stroke-linejoin:miter;stroke-opacity:1" />
      <path
         sodipodi:nodetypes="cc"
         inkscape:connector-curvature="0"
         id="path3065"
         d="M 675,777.36218 H 75"
         style="fill:none;stroke:#000000;stroke-width:3;stroke-linecap:butt;stroke-linejoin:miter;stroke-opacity:1" />
      <path
         sodipodi:nodetypes="cc"
         inkscape:connector-curvature="0"
         id="path3055"
         d="M 75,652.36218 H 675"
         style="fill:none;stroke:#000000;stroke-width:3;stroke-linecap:butt;stroke-linejoin:miter;stroke-opacity:1" />
    </g>
    <path
       sodipodi:nodetypes="cccc"
       inkscape:connector-curvature="0"
       inkscape:original-d="m 300,782.36218 -5,12.5 h 10 z"
       inkscape:path-effect="#path-effect3368-6"
       id="path3366-0"
       d="m 300,782.36218 -5,12.5 h 10 z"
       style="fill:#ff0000;stroke:none" />
    <path
       sodipodi:nodetypes="cccc"
       inkscape:connector-curvature="0"
       inkscape:original-d="m 350,782.36218 5,12.5 h -10 z"
       inkscape:path-effect="#path-effect3368-6-9"
       id="path3366-0-7"
       d="m 350,782.36218 5,12.5 h -10 z"
       style="fill:#ff0000;stroke:none" />
    <path
       sodipodi:nodetypes="cccc"
       inkscape:connector-curvature="0"
       inkscape:original-d="m 250,782.36218 -5,12.5 h 10 z"
       inkscape:path-effect="#path-effect3368-6-97"
       id="path3366-0-8"
       d="m 250,782.36218 -5,12.5 h 10 z"
       style="fill:#ff0000;stroke:none" />
    <path
       sodipodi:nodetypes="cccc"
       inkscape:connector-curvature="0"
       inkscape:original-d="m 200,782.36218 -5,12.5 h 10 z"
       inkscape:path-effect="#path-effect3368-6-5"
       id="path3366-0-3"
       d="m 200,782.36218 -5,12.5 h 10 z"
       style="fill:#ff0000;stroke:none" />
    <path
       sodipodi:nodetypes="cccc"
       inkscape:connector-curvature="0"
       inkscape:original-d="m 150,782.36218 -5,12.5 h 10 z"
       inkscape:path-effect="#path-effect3368-6-3"
       id="path3366-0-83"
       d="m 150,782.36218 -5,12.5 h 10 z"
       style="fill:#ff0000;stroke:none" />
    <path
       sodipodi:nodetypes="cccc"
       inkscape:connector-curvature="0"
       inkscape:original-d="m 100,782.36218 -5,12.5 h 10 z"
       inkscape:path-effect="#path-effect3368-6-93"
       id="path3366-0-78"
       d="m 100,782.36218 -5,12.5 h 10 z"
       style="fill:#ff0000;stroke:none" />
    <path
       sodipodi:nodetypes="cccc"
       inkscape:connector-curvature="0"
       inkscape:original-d="m 400,797.36218 5,-12.5 h -10 z"
       inkscape:path-effect="#path-effect3368-6-9-7"
       id="path3366-0-7-4"
       d="m 400,797.36218 5,-12.5 h -10 z"
       style="fill:#ff0000;stroke:none" />
    <path
       sodipodi:nodetypes="cccc"
       inkscape:connector-curvature="0"
       inkscape:original-d="m 450,797.36218 5,-12.5 h -10 z"
       inkscape:path-effect="#path-effect3368-6-9-1"
       id="path3366-0-7-9"
       d="m 450,797.36218 5,-12.5 h -10 z"
       style="fill:#ff0000;stroke:none" />
    <path
       sodipodi:nodetypes="cccc"
       inkscape:connector-curvature="0"
       inkscape:original-d="m 500,797.36218 5,-12.5 h -10 z"
       inkscape:path-effect="#path-effect3368-6-9-0"
       id="path3366-0-7-98"
       d="m 500,797.36218 5,-12.5 h -10 z"
       style="fill:#ff0000;stroke:none" />
    <path
       sodipodi:nodetypes="cccc"
       inkscape:connector-curvature="0"
       inkscape:original-d="m 550,797.36218 5,-12.5 h -10 z"
       inkscape:path-effect="#path-effect3368-6-9-8"
       id="path3366-0-7-5"
       d="m 550,797.36218 5,-12.5 h -10 z"
       style="fill:#ff0000;stroke:none" />
    <path
       sodipodi:nodetypes="cccc"
       inkscape:connector-curvature="0"
       inkscape:original-d="m 600,797.36218 5,-12.5 h -10 z"
       inkscape:path-effect="#path-effect3368-6-9-4"
       id="path3366-0-7-3"
       d="m 600,797.36218 5,-12.5 h -10 z"
       style="fill:#ff0000;stroke:none" />
    <path
       sodipodi:nodetypes="cccc"
       inkscape:connector-curvature="0"
       inkscape:original-d="m 650,797.36218 5,-12.5 h -10 z"
       inkscape:path-effect="#path-effect3368-6-9-71"
       id="path3366-0-7-38"
       d="m 650,797.36218 5,-12.5 h -10 z"
       style="fill:#ff0000;stroke:none" />
    <text
       xml:space="preserve"
       style="font-style:normal;font-variant:normal;font-weight:normal;font-stretch:normal;line-height:0%;font-family:'Nimbus Roman No9 L';-inkscape-font-specification:'Nimbus Roman No9 L';text-align:start;letter-spacing:0px;word-spacing:0px;writing-mode:lr-tb;text-anchor:start;fill:#00ff00;fill-opacity:1;stroke:#008000"
       x="362.5"
       y="804.86218"
       id="text4766"><tspan
         sodipodi:role="line"
         id="tspan4768"
         x="362.5"
         y="804.86218"
         style="font-size:48px;line-height:1">S</tspan></text>
    <text
       xml:space="preserve"
       style="font-style:normal;font-variant:normal;font-weight:normal;font-stretch:normal;line-height:0%;font-family:'Nimbus Roman No9 L';-inkscape-font-specification:'Nimbus Roman No9 L';text-align:start;letter-spacing:0px;word-spacing:0px;writing-mode:lr-tb;text-anchor:start;fill:#ff0000;fill-opacity:1;stroke:#800000"
       x="660"
       y="804.86218"
       id="text4766-6"><tspan
         sodipodi:role="line"
         id="tspan4768-3"
         x="660"
         y="804.86218"
         style="font-size:48px;line-height:1">N</tspan></text>
    <text
       xml:space="preserve"
       style="font-style:normal;font-variant:normal;font-weight:normal;font-stretch:normal;line-height:0%;font-family:'Nimbus Roman No9 L';-inkscape-font-specification:'Nimbus Roman No9 L';text-align:start;letter-spacing:0px;word-spacing:0px;writing-mode:lr-tb;text-anchor:start;fill:#ff0000;fill-opacity:1;stroke:#800000"
       x="57.5"
       y="804.86218"
       id="text4766-6-2"><tspan
         sodipodi:role="line"
         id="tspan4768-3-2"
         x="57.5"
         y="804.86218"
         style="font-size:48px;line-height:1">N</tspan></text>
  </g>
</svg>
