% $ biblatex auxiliary file $
% $ biblatex bbl format version 2.8 $
% Do not modify the above lines!
%
% This is an auxiliary file used by the 'biblatex' package.
% This file may safely be deleted. It will be recreated by
% biber as required.
%
\begingroup
\makeatletter
\@ifundefined{ver@biblatex.sty}
  {\@latex@error
     {Missing 'biblatex' package}
     {The bibliography requires the 'biblatex' package.}
      \aftergroup\endinput}
  {}
\endgroup


\refsection{0}
  \sortlist[entry]{anyt/global/}
    \entry{nerreter_grundlagen_2011}{book}{}
      \name{author}{1}{}{%
        {{hash=f371fddacf518e620b525397c05f8476}{%
           family={Nerreter},
           familyi={N\bibinitperiod},
           given={Wolfgang},
           giveni={W\bibinitperiod}}}%
      }
      \list{location}{1}{%
        {München}%
      }
      \list{publisher}{1}{%
        {Fachbuchverl. Leipzig im Carl-Hanser-Verl}%
      }
      \strng{namehash}{f371fddacf518e620b525397c05f8476}
      \strng{fullhash}{f371fddacf518e620b525397c05f8476}
      \strng{authornamehash}{f371fddacf518e620b525397c05f8476}
      \strng{authorfullhash}{f371fddacf518e620b525397c05f8476}
      \field{labelalpha}{Ner11}
      \field{sortinit}{N}
      \field{sortinithash}{1163c28585427c673ad5a010cbf82f52}
      \field{labelnamesource}{author}
      \field{labeltitlesource}{shorttitle}
      \field{edition}{2., aktualisierte Aufl}
      \field{isbn}{978-3-446-42385-5}
      \field{note}{{OCLC}: 846279145}
      \field{pagetotal}{383}
      \field{shorttitle}{Grundlagen der Elektrotechnik}
      \field{title}{Grundlagen der Elektrotechnik: mit 31 Tabellen, 138 Beispielen, sowie 100 Aufgaben mit Lösungen}
      \field{year}{2011}
      \field{dateera}{ce}
    \endentry
  \endsortlist
\endrefsection
\endinput

