EESchema Schematic File Version 4
EELAYER 30 0
EELAYER END
$Descr A4 11693 8268
encoding utf-8
Sheet 1 1
Title ""
Date ""
Rev ""
Comp ""
Comment1 ""
Comment2 ""
Comment3 ""
Comment4 ""
$EndDescr
$Comp
L Device:R R1
U 1 1 5DF79925
P 2550 2050
F 0 "R1" H 2620 2096 50  0000 L CNN
F 1 "1k" H 2620 2005 50  0000 L CNN
F 2 "" V 2480 2050 50  0001 C CNN
F 3 "~" H 2550 2050 50  0001 C CNN
	1    2550 2050
	1    0    0    -1  
$EndComp
$Comp
L Device:R R2
U 1 1 5DF79B6E
P 2550 2500
F 0 "R2" H 2620 2546 50  0000 L CNN
F 1 "1k" H 2620 2455 50  0000 L CNN
F 2 "" V 2480 2500 50  0001 C CNN
F 3 "~" H 2550 2500 50  0001 C CNN
	1    2550 2500
	1    0    0    -1  
$EndComp
$Comp
L Device:R R3
U 1 1 5DF7A338
P 3000 2500
F 0 "R3" H 3070 2546 50  0000 L CNN
F 1 "1k" H 3070 2455 50  0000 L CNN
F 2 "" V 2930 2500 50  0001 C CNN
F 3 "~" H 3000 2500 50  0001 C CNN
	1    3000 2500
	1    0    0    -1  
$EndComp
$Comp
L pspice:VSOURCE V1
U 1 1 5DF7A744
P 1700 2300
F 0 "V1" H 1928 2346 50  0000 L CNN
F 1 "10" H 1928 2255 50  0000 L CNN
F 2 "" H 1700 2300 50  0001 C CNN
F 3 "~" H 1700 2300 50  0001 C CNN
	1    1700 2300
	1    0    0    -1  
$EndComp
Wire Wire Line
	2550 1900 1700 1900
Wire Wire Line
	1700 1900 1700 2000
Wire Wire Line
	2550 2650 1700 2650
Wire Wire Line
	1700 2650 1700 2600
Wire Wire Line
	2550 2350 2550 2250
Wire Wire Line
	2550 2250 3000 2250
Wire Wire Line
	3000 2250 3000 2350
Connection ~ 2550 2250
Wire Wire Line
	2550 2250 2550 2200
Wire Wire Line
	2550 2650 3000 2650
Connection ~ 2550 2650
$Comp
L power:GND #PWR01
U 1 1 5DF7B096
P 2550 2800
F 0 "#PWR01" H 2550 2550 50  0001 C CNN
F 1 "GND" H 2555 2627 50  0000 C CNN
F 2 "" H 2550 2800 50  0001 C CNN
F 3 "" H 2550 2800 50  0001 C CNN
	1    2550 2800
	1    0    0    -1  
$EndComp
Wire Wire Line
	2550 2800 2550 2650
$EndSCHEMATC
